FRED Tutorial
…
Multiple serieses

Import data

In this case, we import multiple series: unemployment rate and job openings.

dataset <- map_dfr(c("UNRATE", "JTSJOL"), fredr)
dataset

## # A tibble: 1,126 x 5
##    date       series_id value realtime_start realtime_end
##    <date>     <chr>     <dbl> <date>         <date>      
##  1 1948-01-01 UNRATE      3.4 2021-06-13     2021-06-13  
##  2 1948-02-01 UNRATE      3.8 2021-06-13     2021-06-13  
##  3 1948-03-01 UNRATE      4   2021-06-13     2021-06-13  
##  4 1948-04-01 UNRATE      3.9 2021-06-13     2021-06-13  
##  5 1948-05-01 UNRATE      3.5 2021-06-13     2021-06-13  
##  6 1948-06-01 UNRATE      3.6 2021-06-13     2021-06-13  
##  7 1948-07-01 UNRATE      3.6 2021-06-13     2021-06-13  
##  8 1948-08-01 UNRATE      3.9 2021-06-13     2021-06-13  
##  9 1948-09-01 UNRATE      3.8 2021-06-13     2021-06-13  
## 10 1948-10-01 UNRATE      3.7 2021-06-13     2021-06-13  
## #  with 1,116 more rows

For visualization, we modify table into wider format, where each series become a separte column.

dataset_wider <- dataset %>%
  select(date,series_id,value) %>% pivot_wider(names_from="series_id", values_from="value")
dataset_wider

## # A tibble: 881 x 3
##    date       UNRATE JTSJOL
##    <date>      <dbl>  <dbl>
##  1 1948-01-01    3.4     NA
##  2 1948-02-01    3.8     NA
##  3 1948-03-01    4       NA
##  4 1948-04-01    3.9     NA
##  5 1948-05-01    3.5     NA
##  6 1948-06-01    3.6     NA
##  7 1948-07-01    3.6     NA
##  8 1948-08-01    3.9     NA
##  9 1948-09-01    3.8     NA
## 10 1948-10-01    3.7     NA
## #  with 871 more rows
…
